[2019-09-07T01:01:06.502] [INFO] access - Hit POST /api/user/login
[2019-09-07T01:01:38.388] [INFO] access - Hit POST /api/user/login
[2019-09-07T01:01:42.381] [INFO] access - Hit POST /api/user/login
[2019-09-07T01:01:45.349] [INFO] access - Hit POST /api/user/login
[2019-09-07T01:02:07.610] [INFO] access - Hit OPTIONS /api/user/login
[2019-09-07T01:02:07.621] [INFO] access - Hit POST /api/user/login
[2019-09-07T01:02:25.442] [INFO] access - Hit OPTIONS /api/user/login
[2019-09-07T01:02:25.456] [INFO] access - Hit POST /api/user/login
[2019-09-07T01:02:26.680] [INFO] access - Hit POST /api/user/login
[2019-09-07T01:02:27.168] [INFO] access - Hit POST /api/user/login
[2019-09-07T01:02:27.567] [INFO] access - Hit POST /api/user/login
[2019-09-07T01:03:06.858] [INFO] access - Hit OPTIONS /api/user/login
[2019-09-07T01:03:06.861] [INFO] access - Hit OPTIONS /api/user/login
[2019-09-07T01:03:06.864] [INFO] access - Hit POST /api/user/login
[2020-05-15T22:36:41.151] [INFO] startUpLogger - Server Now with Logger on PORT :3000
