[2019-09-06T12:25:22.702] [INFO] startUpLogger - Server Now WIth Logger on http://127.0.0.1:3000
[2019-09-06T12:25:40.368] [INFO] access - Hit OPTIONS /api/user/register
[2019-09-06T12:25:40.437] [INFO] access - Hit POST /api/user/register
[2019-09-06T12:25:41.089] [INFO] users - User is registered successfully with Token:eyJhbGciOiJIUzI1NiIsInR5cCI6IkpXVCJ9.eyJfaWQiOiI1ZDcyMDJlY2MwYmY4ZjE0YjBjYTIzYmQiLCJpYXQiOjE1Njc3NTI5NDEsImV4cCI6MTU2Nzc5NjE0MX0.BP7sw7vHAFAibNX8YZK9UtxPJ81F_YCR1iZ3bWegcJA
[2019-09-06T12:25:58.940] [INFO] access - Hit OPTIONS /api/user/login
[2019-09-06T12:25:58.952] [INFO] access - Hit POST /api/user/login
[2019-09-06T12:25:59.365] [INFO] users - User is registered with token  eyJhbGciOiJIUzI1NiIsInR5cCI6IkpXVCJ9.eyJfaWQiOiI1ZDcyMDJlY2MwYmY4ZjE0YjBjYTIzYmQiLCJpYXQiOjE1Njc3NTI5NTksImV4cCI6MTU2Nzc5NjE1OX0.86FFwlpHUDuT0K7P0fVaAYE0N8G49lp6PpG_y4eW4Jw
[2019-09-06T12:29:51.381] [INFO] access - Hit OPTIONS /api/user/register
[2019-09-06T12:29:51.394] [INFO] access - Hit POST /api/user/register
