[2019-09-06T22:14:01.333] [INFO] startUpLogger - Server Now with Logger on PORT :3000
[2019-09-06T22:14:01.335] [INFO] startUpLogger - Server Now WIth Logger on http://127.0.0.1:3000
[2019-09-07T00:58:55.330] [INFO] access - Hit OPTIONS /api/user/login
[2019-09-07T00:58:56.035] [INFO] access - Hit POST /api/user/login
[2019-09-07T00:58:56.129] [INFO] access - Hit POST /api/user/login
[2019-09-07T00:59:38.072] [INFO] access - Hit OPTIONS /api/user/login
[2019-09-07T00:59:38.081] [INFO] access - Hit POST /api/user/login
[2019-09-07T00:59:42.076] [INFO] access - Hit POST /api/user/login
[2019-09-07T00:59:42.909] [INFO] access - Hit POST /api/user/login
[2019-09-07T00:59:44.954] [INFO] access - Hit OPTIONS /api/user/login
[2019-09-07T00:59:45.033] [INFO] access - Hit OPTIONS /api/user/login
[2019-09-07T00:59:45.041] [INFO] access - Hit POST /api/user/login
[2019-09-07T01:00:56.385] [INFO] access - Hit POST /api/user/login
[2019-09-07T01:00:56.439] [INFO] access - Hit POST /api/user/login
[2019-09-07T01:01:06.494] [INFO] access - Hit OPTIONS /api/user/login
