[2019-09-06T12:29:51.795] [INFO] users - User is registered successfully with Token:eyJhbGciOiJIUzI1NiIsInR5cCI6IkpXVCJ9.eyJfaWQiOiI1ZDcyMDNlN2MwYmY4ZjE0YjBjYTIzYmUiLCJpYXQiOjE1Njc3NTMxOTEsImV4cCI6MTU2Nzc5NjM5MX0.ADDntLHMMENCFa3RbIdoUNdG3sx5D4P2YB0jvAAzT9o
[2019-09-06T12:47:25.335] [INFO] access - Hit OPTIONS /api/user/login
[2019-09-06T12:47:25.346] [INFO] access - Hit POST /api/user/login
[2019-09-06T12:47:25.735] [INFO] users - User is registered with token  eyJhbGciOiJIUzI1NiIsInR5cCI6IkpXVCJ9.eyJfaWQiOiI1ZDcyMDJlY2MwYmY4ZjE0YjBjYTIzYmQiLCJpYXQiOjE1Njc3NTQyNDUsImV4cCI6MTU2Nzc5NzQ0NX0.s4wmllmRkyqX56lfMGHpUdGet7UPvEz9EPLcOXH3BtY
[2019-09-06T12:58:05.686] [INFO] access - Hit OPTIONS /api/user/login
[2019-09-06T12:58:05.696] [INFO] access - Hit POST /api/user/login
[2019-09-06T12:58:06.187] [INFO] users - User is registered with token  eyJhbGciOiJIUzI1NiIsInR5cCI6IkpXVCJ9.eyJfaWQiOiI1ZDcyMDJlY2MwYmY4ZjE0YjBjYTIzYmQiLCJpYXQiOjE1Njc3NTQ4ODYsImV4cCI6MTU2Nzc5ODA4Nn0.ZyIM7TWo0lDZoTjJUIloj3q_Ib3szSkQbDsBe1rrcnU
