[2020-05-15T22:36:41.152] [INFO] startUpLogger - Server Now WIth Logger on http://127.0.0.1:3000
[2020-05-15T22:39:18.117] [INFO] startUpLogger - Server Now with Logger on PORT :3000
[2020-05-15T22:39:18.119] [INFO] startUpLogger - Server Now WIth Logger on http://127.0.0.1:3000
[2020-05-15T22:45:01.146] [INFO] startUpLogger - Server Now with Logger on PORT :3000
[2020-05-15T22:45:01.147] [INFO] startUpLogger - Server Now WIth Logger on http://127.0.0.1:3000
[2020-05-15T23:07:20.094] [INFO] access - Hit OPTIONS /api/user/register
[2020-05-15T23:07:20.656] [INFO] access - Hit POST /api/user/register
[2020-05-15T23:07:22.313] [INFO] users - User is registered successfully with Token:eyJhbGciOiJIUzI1NiIsInR5cCI6IkpXVCJ9.eyJfaWQiOiI1ZWJlZDM1MDg0OGIxNzMyMDA0Njk5YWYiLCJpYXQiOjE1ODk1NjQyNDEsImV4cCI6MTU4OTYwNzQ0MX0.j1YGUTIlH5cYkdHqjFEOi-BsSYxdMzsZN0G9En-0zik
[2020-05-15T23:08:39.291] [INFO] access - Hit OPTIONS /api/user/login
[2020-05-15T23:08:39.294] [INFO] access - Hit POST /api/user/login
[2020-05-15T23:08:39.919] [INFO] users - User is registered with token  eyJhbGciOiJIUzI1NiIsInR5cCI6IkpXVCJ9.eyJfaWQiOiI1ZWJlZDM1MDg0OGIxNzMyMDA0Njk5YWYiLCJpYXQiOjE1ODk1NjQzMTksImV4cCI6MTU4OTYwNzUxOX0.T_GiDTHHPYqYu0Sa3BFaObcULd1uqQFrckRmVhQ_azY
